{
	"info": {
		"_postman_id": "f5875182-e44d-4aa4-881d-946011c5f391",
		"name": "51.91.132.186",
		"schema": "https://schema.getpostman.com/json/collection/v2.1.0/collection.json",
		"_exporter_id": "21155984"
	},
	"item": [
		{
			"name": "TC1",
			"item": [
				{
					"name": "Créer un formateur",
					"event": [
						{
							"listen": "test",
							"script": {
								"exec": [
									"let status = parseInt(pm.environment.get(\"DS_status\"));\r",
									"\r",
									"pm.test(\"Status code is \" + status, function () {\r",
									"    pm.response.to.have.status(status);\r",
									"});\r",
									"\r",
									"pm.collectionVariables.set(\"DS_formateurID\", pm.response.json().id);\r",
									""
								],
								"type": "text/javascript"
							}
						}
					],
					"request": {
						"method": "POST",
						"header": [],
						"body": {
							"mode": "raw",
							"raw": "{\r\n        \"nom\": \"{{DS_formateurNOM}}\",\r\n        \"prenom\" : \"{{DS_formateurPRENOM}}\"\r\n    }",
							"options": {
								"raw": {
									"language": "json"
								}
							}
						},
						"url": {
							"raw": "{{baseurl}}/formateurs",
							"host": [
								"{{baseurl}}"
							],
							"path": [
								"formateurs"
							]
						}
					},
					"response": []
				},
				{
					"name": "Supprimer formateur",
					"event": [
						{
							"listen": "test",
							"script": {
								"exec": [
									""
								],
								"type": "text/javascript"
							}
						}
					],
					"request": {
						"method": "DELETE",
						"header": [],
						"url": {
							"raw": "{{baseurl}}/formateurs/{{DS_formateurID}}",
							"host": [
								"{{baseurl}}"
							],
							"path": [
								"formateurs",
								"{{DS_formateurID}}"
							]
						}
					},
					"response": []
				}
			]
		},
		{
			"name": "TC-2 Modifier un formateur",
			"item": [
				{
					"name": "Créer un formateur",
					"event": [
						{
							"listen": "test",
							"script": {
								"exec": [
									"pm.collectionVariables.set(\"DS_formateurID\", pm.response.json().id);\r",
									"pm.collectionVariables.set(\"DS_formateurBodyID\", pm.response.json().id);\r",
									"pm.collectionVariables.set(\"DS_formateurNOM\", pm.response.json().nom);\r",
									"pm.collectionVariables.set(\"DS_formateurPRENOM\", pm.response.json().prenom);\r",
									"pm.collectionVariables.set(\"DS_formateurEMAIL\", pm.response.json().email);"
								],
								"type": "text/javascript"
							}
						}
					],
					"request": {
						"method": "POST",
						"header": [],
						"body": {
							"mode": "raw",
							"raw": "{\r\n        \"nom\": \"{{$randomLastName}}\",\r\n        \"prenom\" : \"{{$randomFirstName}}\",\r\n        \"email\": \"{{$randomEmail}}\"\r\n    }",
							"options": {
								"raw": {
									"language": "json"
								}
							}
						},
						"url": {
							"raw": "{{baseurl}}/formateurs",
							"host": [
								"{{baseurl}}"
							],
							"path": [
								"formateurs"
							]
						}
					},
					"response": []
				},
				{
					"name": "Modifier un formateur (champs obligatoires)",
					"event": [
						{
							"listen": "test",
							"script": {
								"exec": [
									"let status = parseInt(pm.environment.get(\"DS_status\"));\r",
									"\r",
									"pm.test(\"Status code is \" + status, function () {\r",
									"    pm.response.to.have.status(status);\r",
									"});"
								],
								"type": "text/javascript"
							}
						}
					],
					"request": {
						"method": "PUT",
						"header": [],
						"body": {
							"mode": "raw",
							"raw": "{\r\n        \"id\": {{DS_formateurBodyID}},\r\n        \"nom\": \"{{DS_formateurNOM}}\",\r\n        \"prenom\" : \"{{DS_formateurPRENOM}}\"\r\n    }",
							"options": {
								"raw": {
									"language": "json"
								}
							}
						},
						"url": {
							"raw": "{{baseurl}}/formateurs/{{DS_formateurID}}",
							"host": [
								"{{baseurl}}"
							],
							"path": [
								"formateurs",
								"{{DS_formateurID}}"
							]
						}
					},
					"response": []
				},
				{
					"name": "Supprimer formateur",
					"event": [
						{
							"listen": "test",
							"script": {
								"exec": [
									""
								],
								"type": "text/javascript"
							}
						}
					],
					"request": {
						"method": "DELETE",
						"header": [],
						"url": {
							"raw": "{{baseurl}}/formateurs/{{DS_formateurID}}",
							"host": [
								"{{baseurl}}"
							],
							"path": [
								"formateurs",
								"{{DS_formateurID}}"
							]
						}
					},
					"response": []
				}
			]
		}
	],
	"auth": {
		"type": "basic",
		"basic": [
			{
				"key": "password",
				"value": "a",
				"type": "string"
			},
			{
				"key": "username",
				"value": "a",
				"type": "string"
			}
		]
	},
	"event": [
		{
			"listen": "prerequest",
			"script": {
				"type": "text/javascript",
				"exec": [
					""
				]
			}
		},
		{
			"listen": "test",
			"script": {
				"type": "text/javascript",
				"exec": [
					""
				]
			}
		}
	],
	"variable": [
		{
			"key": "baseurl",
			"value": "http://51.91.132.186:8080",
			"type": "string"
		},
		{
			"key": "DS_formateurID",
			"value": ""
		}
	]
}