{
	"id": "8ef5691a-0abf-4f47-ab13-7675eb948444",
	"name": "petstore-production",
	"values": [
		{
			"key": "baseurl",
			"value": "https://petstore.swagger.io/v2",
			"type": "default",
			"enabled": true
		}
	],
	"_postman_variable_scope": "environment",
	"_postman_exported_at": "2022-05-06T12:50:05.528Z",
	"_postman_exported_using": "Postman/9.16.0"
}