[
	{
		"usernameParam": "username",
		"username": "a",
		"passwordParam": "password",
		"password": "a",
		"testCaseDescription": "[FOR-62] Authenticating as admin => 200",
		"status": 200
	},
	{
		"usernameParam": "username",
		"username": "f",
		"passwordParam": "password",
		"password": "f",
		"testCaseDescription": "[FOR-62] Authenticating as formateur => 200",
		"status": 200
	},
	{
		"usernameParam": "username",
		"username": "s",
		"passwordParam": "password",
		"password": "s",
		"testCaseDescription": "[FOR-62] Authenticating as stagiaire => 200",
		"status": 200
	},
	{
		"usernameParam": "username",
		"username": "a",
		"passwordParam": "password",
		"password": "invalid",
		"testCaseDescription": "[FOR-62] Authenticating with invalid password => 403",
		"status": 403
	},
	{
		"usernameParam": "username",
		"username": "invalid",
		"passwordParam": "password",
		"password": "a",
		"testCaseDescription": "[FOR-62] Authenticating with invalid username => 403",
		"status": 403
	},
	{
		"usernameParam": "username",
		"username": "a",
		"passwordParam": "invalid",
		"password": "invalid",
		"testCaseDescription": "[FOR-62] Authenticating without password => 400",
		"status": 400
	},
	{
		"usernameParam": "invalid",
		"username": "invalid",
		"passwordParam": "password",
		"password": "a",
		"testCaseDescription": "[FOR-62] Authenticating without username => 400",
		"status": 400
	}
]